<mxfile host="Electron" modified="2024-04-26T16:25:25.907Z" agent="Mozilla/5.0 (X11; Linux x86_64) AppleWebKit/537.36 (KHTML, like Gecko) draw.io/22.1.21 Chrome/120.0.6099.109 Electron/28.1.0 Safari/537.36" etag="IneCwFqDWPV_Cg1ARYmw" version="22.1.21" type="device">
  <diagram name="Page-1" id="9VE9iRfVU0vylxVwbUmV">
    <mxGraphModel dx="1434" dy="963" grid="1" gridSize="10" guides="1" tooltips="1" connect="1" arrows="1" fold="1" page="1" pageScale="1" pageWidth="850" pageHeight="1100" math="0" shadow="0">
      <root>
        <mxCell id="0" />
        <mxCell id="1" parent="0" />
        <mxCell id="enbKoV1QIvVq_UEcgzsq-81" value="" style="shape=cube;whiteSpace=wrap;html=1;boundedLbl=1;backgroundOutline=1;darkOpacity=0.05;darkOpacity2=0.1;fillColor=#f9f7ed;strokeColor=#36393d;sketch=0;shadow=1;gradientColor=#ffffff;" parent="1" vertex="1">
          <mxGeometry x="50" y="30" width="1130" height="210" as="geometry" />
        </mxCell>
        <mxCell id="enbKoV1QIvVq_UEcgzsq-60" value="(scripts meant to be edited)" style="shape=process;whiteSpace=wrap;html=1;backgroundOutline=1;labelBackgroundColor=none;fontSize=11;fontStyle=1;glass=0;rounded=1;sketch=1;fillColor=#ffe6cc;strokeColor=#d79b00;" parent="1" vertex="1">
          <mxGeometry x="266.999358974359" y="286.65" width="212.33323317307693" height="37.5" as="geometry" />
        </mxCell>
        <mxCell id="enbKoV1QIvVq_UEcgzsq-61" value="(programs)" style="shape=process;whiteSpace=wrap;html=1;backgroundOutline=1;labelBackgroundColor=none;fontSize=11;fontStyle=1;glass=0;rounded=1;sketch=0;fillColor=#f8cecc;strokeColor=#b85450;" parent="1" vertex="1">
          <mxGeometry x="127.00000000000003" y="286.65" width="130" height="37.5" as="geometry" />
        </mxCell>
        <mxCell id="enbKoV1QIvVq_UEcgzsq-62" value="Legend:" style="text;html=1;strokeColor=none;fillColor=none;align=center;verticalAlign=middle;whiteSpace=wrap;rounded=0;sketch=0;" parent="1" vertex="1">
          <mxGeometry x="67.3" y="295.4" width="40" height="20" as="geometry" />
        </mxCell>
        <mxCell id="enbKoV1QIvVq_UEcgzsq-68" value="" style="endArrow=none;html=1;strokeWidth=5;" parent="1" edge="1">
          <mxGeometry width="50" height="50" relative="1" as="geometry">
            <mxPoint x="50" y="272" as="sourcePoint" />
            <mxPoint x="1180" y="272" as="targetPoint" />
          </mxGeometry>
        </mxCell>
        <mxCell id="enbKoV1QIvVq_UEcgzsq-69" value="2) generate_batch" style="shape=process;whiteSpace=wrap;html=1;backgroundOutline=1;labelBackgroundColor=none;fillColor=#f8cecc;strokeColor=#b85450;fontSize=12;fontStyle=1;rounded=1;" parent="1" vertex="1">
          <mxGeometry x="350" y="62" width="220" height="53.27" as="geometry" />
        </mxCell>
        <mxCell id="enbKoV1QIvVq_UEcgzsq-70" value="3)&lt;span style=&quot;font-weight: normal;&quot;&gt; run batch jobs through command line&lt;/span&gt;" style="shape=process;whiteSpace=wrap;html=1;backgroundOutline=1;labelBackgroundColor=none;fillColor=#f8cecc;strokeColor=#b85450;fontSize=12;fontStyle=1;rounded=1;" parent="1" vertex="1">
          <mxGeometry x="614.79" y="62" width="220" height="53.27" as="geometry" />
        </mxCell>
        <mxCell id="enbKoV1QIvVq_UEcgzsq-80" style="edgeStyle=orthogonalEdgeStyle;rounded=0;orthogonalLoop=1;jettySize=auto;html=1;exitX=0.5;exitY=1;exitDx=0;exitDy=0;entryX=0.5;entryY=0;entryDx=0;entryDy=0;endArrow=none;endFill=0;" parent="1" source="enbKoV1QIvVq_UEcgzsq-71" target="enbKoV1QIvVq_UEcgzsq-79" edge="1">
          <mxGeometry relative="1" as="geometry" />
        </mxCell>
        <mxCell id="enbKoV1QIvVq_UEcgzsq-71" value="4) mgris_gather" style="shape=process;whiteSpace=wrap;html=1;backgroundOutline=1;labelBackgroundColor=none;fillColor=#f8cecc;strokeColor=#b85450;fontSize=12;fontStyle=1;rounded=1;" parent="1" vertex="1">
          <mxGeometry x="897" y="62" width="220" height="53.27" as="geometry" />
        </mxCell>
        <mxCell id="enbKoV1QIvVq_UEcgzsq-76" style="edgeStyle=orthogonalEdgeStyle;rounded=0;orthogonalLoop=1;jettySize=auto;html=1;exitX=0.5;exitY=1;exitDx=0;exitDy=0;entryX=0.5;entryY=0;entryDx=0;entryDy=0;endArrow=none;endFill=0;" parent="1" source="enbKoV1QIvVq_UEcgzsq-72" target="enbKoV1QIvVq_UEcgzsq-75" edge="1">
          <mxGeometry relative="1" as="geometry" />
        </mxCell>
        <mxCell id="enbKoV1QIvVq_UEcgzsq-72" value="&lt;font style=&quot;font-size: 12px;&quot;&gt;1) make_inputs_from_table&lt;/font&gt;" style="shape=process;whiteSpace=wrap;html=1;backgroundOutline=1;labelBackgroundColor=none;fillColor=#ffe6cc;strokeColor=#d79b00;fontSize=11;fontStyle=1;rounded=1;sketch=1;" parent="1" vertex="1">
          <mxGeometry x="89.15" y="62" width="220.85" height="53.27" as="geometry" />
        </mxCell>
        <mxCell id="enbKoV1QIvVq_UEcgzsq-75" value="&lt;ul&gt;&lt;li&gt;Create several input files, e.g., from a table of measurements&lt;/li&gt;&lt;/ul&gt;" style="whiteSpace=wrap;html=1;fontSize=11;strokeColor=#666666;fillColor=#f5f5f5;rounded=1;shadow=0;fontColor=#999999;sketch=0;align=left;" parent="1" vertex="1">
          <mxGeometry x="105.91" y="152" width="184.17" height="71.38" as="geometry" />
        </mxCell>
        <mxCell id="enbKoV1QIvVq_UEcgzsq-77" style="edgeStyle=orthogonalEdgeStyle;rounded=0;orthogonalLoop=1;jettySize=auto;html=1;exitX=0.5;exitY=1;exitDx=0;exitDy=0;entryX=0.5;entryY=0;entryDx=0;entryDy=0;endArrow=none;endFill=0;" parent="1" source="enbKoV1QIvVq_UEcgzsq-69" target="enbKoV1QIvVq_UEcgzsq-78" edge="1">
          <mxGeometry relative="1" as="geometry">
            <mxPoint x="203" y="125" as="sourcePoint" />
          </mxGeometry>
        </mxCell>
        <mxCell id="enbKoV1QIvVq_UEcgzsq-78" value="&lt;ul&gt;&lt;li&gt;Produce batch jobs to be run locally or on clusters&lt;/li&gt;&lt;li&gt;Batch jobs use mgris_wrapper&lt;/li&gt;&lt;/ul&gt;" style="whiteSpace=wrap;html=1;fontSize=11;strokeColor=#666666;fillColor=#f5f5f5;rounded=1;shadow=0;fontColor=#999999;sketch=0;align=left;" parent="1" vertex="1">
          <mxGeometry x="360.45000000000005" y="152" width="199.09" height="71.38" as="geometry" />
        </mxCell>
        <mxCell id="enbKoV1QIvVq_UEcgzsq-79" value="&lt;ul&gt;&lt;li&gt;From a list of result directories or files, produce a table with metrics&lt;/li&gt;&lt;li&gt;The table may keep a subset of the individual draws&lt;/li&gt;&lt;/ul&gt;" style="whiteSpace=wrap;html=1;fontSize=11;strokeColor=#666666;fillColor=#f5f5f5;rounded=1;shadow=0;fontColor=#999999;sketch=0;align=left;" parent="1" vertex="1">
          <mxGeometry x="914.91" y="152" width="184.17" height="71.38" as="geometry" />
        </mxCell>
      </root>
    </mxGraphModel>
  </diagram>
</mxfile>
